Problema 2/código/simulation/qsim/main.msim.vcd
$comment
	File created using the following command:
		vcd file main.msim.vcd -direction
$end
$date
	Sun Jun 09 19:40:29 2024
$end
$version
	ModelSim Version 2020.1
$end
$timescale
	1ps
$end

$scope module main_vlg_vec_tst $end
$var reg 1 ! Alta $end
$var reg 1 " Baixa $end
$var reg 1 # Media $end
$var reg 1 $ Solo $end
$var reg 1 % Temperatura $end
$var reg 1 & Umidade $end
$var reg 1 ' buttom $end
$var reg 1 ( clk $end
$var reg 1 ) clk3 $end
$var wire 1 * Alarme $end
$var wire 1 + D1 $end
$var wire 1 , D2 $end
$var wire 1 - D3 $end
$var wire 1 . D4 $end
$var wire 1 / Erro $end
$var wire 1 0 Ve $end
$var wire 1 1 a $end
$var wire 1 2 b $end
$var wire 1 3 c $end
$var wire 1 4 d $end
$var wire 1 5 e $end
$var wire 1 6 f $end
$var wire 1 7 g $end
$var wire 1 8 qUnidadedeMinutos [3] $end
$var wire 1 9 qUnidadedeMinutos [2] $end
$var wire 1 : qUnidadedeMinutos [1] $end
$var wire 1 ; qUnidadedeMinutos [0] $end

$scope module i1 $end
$var wire 1 < gnd $end
$var wire 1 = vcc $end
$var wire 1 > unknown $end
$var tri1 1 ? devclrn $end
$var tri1 1 @ devpor $end
$var tri1 1 A devoe $end
$var wire 1 B clk~combout $end
$var wire 1 C comb_4|SaidaClock|comb_3|Q~regout $end
$var wire 1 D comb_4|SaidaClock|comb_5|Q~regout $end
$var wire 1 E comb_4|SaidaClock|comb_7|Q~regout $end
$var wire 1 F comb_4|SaidaClock|comb_9|Q~regout $end
$var wire 1 G comb_4|SaidaClock|comb_11|Q~regout $end
$var wire 1 H comb_4|SaidaClock|comb_13|Q~regout $end
$var wire 1 I comb_4|SaidaClock|comb_15|Q~regout $end
$var wire 1 J comb_4|SaidaClock|comb_17|Q~regout $end
$var wire 1 K comb_4|SaidaClock|comb_19|Q~regout $end
$var wire 1 L comb_4|SaidaClock|comb_21|Q~regout $end
$var wire 1 M comb_4|SaidaClock|comb_23|Q~regout $end
$var wire 1 N comb_4|SaidaClock|comb_25|Q~regout $end
$var wire 1 O comb_4|SaidaClock|comb_27|Q~regout $end
$var wire 1 P comb_4|SaidaClock|comb_29|Q~regout $end
$var wire 1 Q comb_4|SaidaClock|comb_31|Q~regout $end
$var wire 1 R comb_4|SaidaClock|comb_33|Q~regout $end
$var wire 1 S comb_4|SaidaClock|comb_35|Q~regout $end
$var wire 1 T comb_4|comb_23|q~regout $end
$var wire 1 U comb_4|comb_20|q~regout $end
$var wire 1 V comb_4|comb_26|D1~0_combout $end
$var wire 1 W comb_4|comb_26|D1~1_combout $end
$var wire 1 X comb_4|comb_26|D1~2_combout $end
$var wire 1 Y comb_4|comb_26|D1~3_combout $end
$var wire 1 Z comb_4|SaidaClock|comb_37|Q~regout $end
$var wire 1 [ comb_4|SaidaClock|comb_39|Q~regout $end
$var wire 1 \ comb_4|SaidaClock|comb_41|Q~regout $end
$var wire 1 ] comb_4|SaidaClock|comb_43|Q~regout $end
$var wire 1 ^ comb_4|SaidaClock|comb_45|Q~regout $end
$var wire 1 _ comb_4|SaidaClock|comb_47|Q~regout $end
$var wire 1 ` comb_4|SaidaClock|comb_49|Q~regout $end
$var wire 1 a comb_4|SaidaClock|comb_52|q~regout $end
$var wire 1 b comb_4|SaidaClock|comb_51|q~regout $end
$var wire 1 c comb_4|SaidaClock|Frequencia $end
$var wire 1 d Media~combout $end
$var wire 1 e Alta~combout $end
$var wire 1 f Baixa~combout $end
$var wire 1 g comb_3|dut_caixa|saida_alarme~combout $end
$var wire 1 h buttom~combout $end
$var wire 1 i Solo~combout $end
$var wire 1 j comb_4|clearUm[1]~1_combout $end
$var wire 1 k comb_4|UnidadeSegundos|Us4|q~regout $end
$var wire 1 l comb_4|UnidadeSegundos|Us2|q~regout $end
$var wire 1 m comb_4|UnidadeSegundos|Us1|q~regout $end
$var wire 1 n comb_4|UnidadeSegundos|Us3|q~regout $end
$var wire 1 o comb_4|UnidadeSegundos|saidaclock2~combout $end
$var wire 1 p comb_4|DezenadeSegundos|D4|q~regout $end
$var wire 1 q comb_4|DezenadeSegundos|D3|q~regout $end
$var wire 1 r comb_4|DezenadeSegundos|D2|q~regout $end
$var wire 1 s clk3~combout $end
$var wire 1 t Umidade~combout $end
$var wire 1 u Temperatura~combout $end
$var wire 1 v comb_4|clearUm[1]~0_combout $end
$var wire 1 w comb_4|UnidadedeMinutos|Us2|q~0_combout $end
$var wire 1 x comb_4|UnidadedeMinutos|Us4|q~regout $end
$var wire 1 y comb_4|UnidadedeMinutos|Us3|q~regout $end
$var wire 1 z comb_4|UnidadedeMinutos|Us1|q~regout $end
$var wire 1 { comb_4|UnidadedeMinutos|Us2|q~regout $end
$var wire 1 | comb_4|comb_24|WideOr1~0_combout $end
$var wire 1 } comb_4|comb_24|WideOr1~1_combout $end
$var wire 1 ~ comb_4|UnidadedeMinutos|saidaclock2~combout $end
$var wire 1 !! comb_4|DezenadeMinutos|comb_8|q~regout $end
$var wire 1 "! comb_4|comb_24|WideOr3~0_combout $end
$var wire 1 #! comb_4|comb_24|WideOr3~1_combout $end
$var wire 1 $! comb_4|DezenadeMinutos|comb_5|q~regout $end
$var wire 1 %! comb_4|comb_24|WideOr2~0_combout $end
$var wire 1 &! comb_4|comb_24|WideOr2~1_combout $end
$var wire 1 '! comb_4|comb_24|WideOr0~0_combout $end
$var wire 1 (! comb_4|comb_25|WideOr0~0_combout $end
$var wire 1 )! comb_4|comb_25|b~combout $end
$var wire 1 *! comb_4|comb_25|WideAnd1~combout $end
$var wire 1 +! comb_4|comb_25|WideOr0~1_combout $end
$var wire 1 ,! comb_4|comb_25|e~combout $end
$var wire 1 -! comb_4|comb_25|WideOr1~0_combout $end
$var wire 1 .! comb_4|comb_25|g~combout $end
$var wire 1 /! comb_3|dut_caixa|saida_erro~0_combout $end
$var wire 1 0! comb_3|dut_caixa|Nivel_Erro~0_combout $end
$var wire 1 1! comb_4|clearUm [3] $end
$var wire 1 2! comb_4|clearUm [2] $end
$var wire 1 3! comb_4|clearUm [1] $end
$var wire 1 4! comb_4|clearUm [0] $end
$upscope $end
$upscope $end
$enddefinitions $end
#0
$dumpvars
0!
0"
0#
0$
0%
0&
0'
x(
0)
1*
1+
1,
1-
0.
0/
10
01
02
03
04
05
06
17
0;
0:
09
08
0<
1=
x>
1?
1@
1A
xB
0C
0D
0E
0F
0G
0H
0I
0J
0K
0L
0M
0N
0O
0P
0Q
0R
0S
0T
0U
0V
0W
0X
0Y
0Z
0[
0\
0]
0^
0_
0`
0a
0b
1c
0d
0e
0f
1g
0h
0i
0j
0k
0l
0m
0n
0o
0p
0q
0r
0s
0t
0u
0v
0w
0x
0y
0z
0{
0|
0}
0~
0!!
0"!
0#!
0$!
0%!
0&!
0'!
0(!
0)!
0*!
0+!
0,!
0-!
1.!
0/!
00!
z4!
03!
z2!
z1!
$end
#10000
1!
1#
1"
1)
1'
1e
1d
1f
1s
1h
10!
0g
1w
1j
0*
00
1{
1x
1:
18
#20000
0)
0s
#30000
0'
1)
0h
1s
0w
0j
#40000
0)
0s
#50000
1)
1s
0x
08
#60000
0)
0s
#70000
1)
1s
0{
1y
1x
0:
19
18
#80000
0)
0s
#90000
1)
1s
0x
08
